<?xml version="1.0" encoding="UTF-8" standalone="no"?>
<svg
   xmlns:dc="http://purl.org/dc/elements/1.1/"
   xmlns:cc="http://creativecommons.org/ns#"
   xmlns:rdf="http://www.w3.org/1999/02/22-rdf-syntax-ns#"
   xmlns:svg="http://www.w3.org/2000/svg"
   xmlns="http://www.w3.org/2000/svg"
   xmlns:sodipodi="http://sodipodi.sourceforge.net/DTD/sodipodi-0.dtd"
   xmlns:inkscape="http://www.inkscape.org/namespaces/inkscape"
   height="24"
   width="24"
   version="1.1"
   id="svg2"
   inkscape:version="1.0.1 (c497b03c, 2020-09-10)"
   sodipodi:docname="add_line_label.svg">
  <metadata
     id="metadata22">
    <rdf:RDF>
      <cc:Work
         rdf:about="">
        <dc:format>image/svg+xml</dc:format>
        <dc:type
           rdf:resource="http://purl.org/dc/dcmitype/StillImage" />
        <dc:title></dc:title>
      </cc:Work>
    </rdf:RDF>
  </metadata>
  <defs
     id="defs20" />
  <sodipodi:namedview
     pagecolor="#111111"
     bordercolor="#666666"
     borderopacity="1"
     objecttolerance="10"
     gridtolerance="10"
     guidetolerance="10"
     inkscape:pageopacity="0"
     inkscape:pageshadow="2"
     inkscape:window-width="1920"
     inkscape:window-height="983"
     id="namedview18"
     showgrid="true"
     inkscape:zoom="24.574859"
     inkscape:cx="6.9326904"
     inkscape:cy="12.932153"
     inkscape:window-x="46"
     inkscape:window-y="47"
     inkscape:window-maximized="0"
     inkscape:current-layer="svg2"
     inkscape:snap-grids="true"
     inkscape:snap-to-guides="false"
     inkscape:document-rotation="0">
    <inkscape:grid
       type="xygrid"
       id="grid2992"
       empspacing="2"
       visible="true"
       enabled="true"
       snapvisiblegridlinesonly="true" />
  </sodipodi:namedview>
  <g
     transform="matrix(1.6112941,0,0,1.5882611,-18.197452,1.7356948)"
     style="font-style:normal;font-variant:normal;font-weight:normal;font-stretch:normal;font-size:34.504px;line-height:125%;font-family:'Ubuntu Mono';-inkscape-font-specification:'Ubuntu Mono';letter-spacing:0px;word-spacing:0px;opacity:1;fill:#F4EFF3;fill-opacity:1;stroke:none;stroke-width:0.625103"
     id="text3857-6">
    <text
       xml:space="preserve"
       style="font-size:16px;line-height:1.25;font-family:sans-serif;letter-spacing:0px;word-spacing:0px;fill:#F4EFF3;fill-opacity:1;stroke-width:0.625103"
       x="13"
       y="11"
       id="text5125-0"
       transform="scale(1.011965,0.98817647)"><tspan
         sodipodi:role="line"
         id="tspan5123-9"
         x="13"
         y="11"
         style="font-style:normal;font-variant:normal;font-weight:600;font-stretch:normal;font-size:16px;font-family:'Noto Sans';-inkscape-font-specification:'Noto Sans Semi-Bold';fill:#F4EFF3;fill-opacity:1;stroke-width:0.625103">A</tspan></text>
  </g>
  <text
     xml:space="preserve"
     style="font-style:normal;font-weight:normal;line-height:0%;font-family:sans-serif;letter-spacing:0px;word-spacing:0px;fill:#000000;fill-opacity:1;stroke:none"
     x="-5.4915252"
     y="28.288136"
     id="text3840">           </text>
  <path
     style="fill:none;stroke:#42B8EB;stroke-width:2;stroke-linecap:round;stroke-linejoin:miter;stroke-miterlimit:4;stroke-dasharray:none;stroke-opacity:1"
     d="M 2,21 H 22"
     id="path2987"
     inkscape:connector-curvature="0"
     sodipodi:nodetypes="cc" />
</svg>
