<?xml version="1.0" encoding="UTF-8" standalone="no"?>
<svg
   xmlns:dc="http://purl.org/dc/elements/1.1/"
   xmlns:cc="http://creativecommons.org/ns#"
   xmlns:rdf="http://www.w3.org/1999/02/22-rdf-syntax-ns#"
   xmlns:svg="http://www.w3.org/2000/svg"
   xmlns="http://www.w3.org/2000/svg"
   xmlns:sodipodi="http://sodipodi.sourceforge.net/DTD/sodipodi-0.dtd"
   xmlns:inkscape="http://www.inkscape.org/namespaces/inkscape"
   height="26"
   width="26"
   version="1.1"
   id="svg2"
   inkscape:version="0.48.3.1 r9886"
   sodipodi:docname="annotate_right_down.svg">
  <metadata
     id="metadata29">
    <rdf:RDF>
      <cc:Work
         rdf:about="">
        <dc:format>image/svg+xml</dc:format>
        <dc:type
           rdf:resource="http://purl.org/dc/dcmitype/StillImage" />
        <dc:title />
      </cc:Work>
    </rdf:RDF>
  </metadata>
  <sodipodi:namedview
     pagecolor="#111111"
     bordercolor="#666666"
     borderopacity="1"
     objecttolerance="10"
     gridtolerance="10"
     guidetolerance="10"
     inkscape:pageopacity="0"
     inkscape:pageshadow="2"
     inkscape:window-width="1301"
     inkscape:window-height="744"
     id="namedview27"
     showgrid="true"
     inkscape:zoom="6.9532167"
     inkscape:cx="-23.452066"
     inkscape:cy="19.011301"
     inkscape:window-x="65"
     inkscape:window-y="24"
     inkscape:window-maximized="1"
     inkscape:current-layer="g11">
    <inkscape:grid
       type="xygrid"
       id="grid2987"
       empspacing="5"
       visible="true"
       enabled="true"
       snapvisiblegridlinesonly="true" />
  </sodipodi:namedview>
  <defs
     id="defs4">
    <filter
       id="a"
       color-interpolation-filters="sRGB">
      <feGaussianBlur
         stdDeviation="5.4804575"
         id="feGaussianBlur7" />
    </filter>
  </defs>
  <g
     id="g11"
     transform="matrix(0.28648887,0.04837496,-0.04384193,0.25964309,1.3389478,-25.643151)">
    <g
       id="g2989"
       transform="matrix(0.18059106,0.57322067,0.4708254,-0.18059106,1.724559,99.448621)">
      <path
         d="m 34.321,26.857 c 11.72,107.25 39.47,196.69 61.459,78.893 13.63,-112.28 39.73,-84.752 56.12,26.02"
         id="path13"
         inkscape:connector-curvature="0"
         style="fill:none;stroke:#E0E0E0;stroke-width:6.89179993" />
      <path
         sodipodi:nodetypes="cccc"
         d="m 132.41581,120.30954 33.93774,-6.32305 -10.66527,44.35293 z"
         id="path15"
         inkscape:connector-curvature="0"
         style="fill:#E0E0E0;stroke:#E0E0E0" />
      <path
         sodipodi:nodetypes="cccc"
         d="M 20.243052,48.774241 54.180793,42.451188 42.942466,83.059446 z"
         id="path17"
         inkscape:connector-curvature="0"
         style="fill:#E0E0E0;stroke:#E0E0E0" />
    </g>
  </g>
</svg>
