<?xml version="1.0" encoding="UTF-8" standalone="no"?>
<svg xmlns:dc="http://purl.org/dc/elements/1.1/"
   xmlns:cc="http://creativecommons.org/ns#"
   xmlns:rdf="http://www.w3.org/1999/02/22-rdf-syntax-ns#"
   xmlns:svg="http://www.w3.org/2000/svg"
   xmlns="http://www.w3.org/2000/svg"
   xmlns:sodipodi="http://sodipodi.sourceforge.net/DTD/sodipodi-0.dtd"
   xmlns:inkscape="http://www.inkscape.org/namespaces/inkscape" id="Слой_1" data-name="Слой 1" viewBox="0 0 24 24" version="1.1" sodipodi:docname="export_footprint_names.svg" inkscape:version="1.0.1 (3bc2e813f5, 2020-09-07)">
   <sodipodi:namedview pagecolor="#111111" bordercolor="#666666" borderopacity="1" objecttolerance="10" gridtolerance="10" guidetolerance="10" inkscape:pageopacity="0" inkscape:pageshadow="2" inkscape:window-width="1609" inkscape:window-height="1286" id="namedview30" showgrid="true" inkscape:zoom="27.961538" inkscape:cx="3.3259971" inkscape:cy="13" inkscape:window-x="0" inkscape:window-y="37" inkscape:window-maximized="0" inkscape:document-rotation="0" inkscape:current-layer="Слой_1">
      <inkscape:grid type="xygrid" id="grid_kicad" spacingx="0.5" spacingy="0.5" color="#9999ff" opacity="0.13" empspacing="2" />
   </sodipodi:namedview>
   <metadata id="metadata43">
      <rdf:RDF>
         <cc:Work rdf:about="">
            <cc:license rdf:resource="http://creativecommons.org/licenses/by-sa/4.0/" />
            <dc:format>image/svg+xml</dc:format>
            <dc:type rdf:resource="http://purl.org/dc/dcmitype/StillImage" />
            <dc:title>add_arc</dc:title>
         </cc:Work>
         <cc:License rdf:about="http://creativecommons.org/licenses/by-sa/4.0/">
            <cc:permits rdf:resource="http://creativecommons.org/ns#Reproduction" />
            <cc:permits rdf:resource="http://creativecommons.org/ns#Distribution" />
            <cc:requires rdf:resource="http://creativecommons.org/ns#Notice" />
            <cc:requires rdf:resource="http://creativecommons.org/ns#Attribution" />
            <cc:permits rdf:resource="http://creativecommons.org/ns#DerivativeWorks" />
            <cc:requires rdf:resource="http://creativecommons.org/ns#ShareAlike" />
         </cc:License>
      </rdf:RDF>
   </metadata>
   <defs id="defs24723">
      <style id="style24721">.cls-1{fill:#8f8f8f;}.cls-2,.cls-4{fill:none;stroke-linecap:round;stroke-width:2px;}.cls-2{stroke:#F4EFF3;stroke-miterlimit:10;}.cls-3{fill:#DC7A8C;}.cls-4{stroke:#545454;stroke-linejoin:round;}</style>
   </defs>
   <title id="title24725">export_footprint_names</title>
   <path class="cls-1" d="m 3.4939,0 h 13.9816 a 3.4978,3.4978 0 0 1 3.4978,3.4978 v 14.0013 a 3.4978,3.4978 0 0 1 -3.4978,3.4978 H 3.4938 A 3.4978,3.4978 0 0 1 -0.004,17.4991 V 3.4979 A 3.4979,3.4979 0 0 1 3.4939,0 Z" id="path24727" />
   <line class="cls-2" x1="4.6875" y1="4.5" x2="16.653799" y2="4.5" id="line24729" />
   <line class="cls-2" x1="4.6875" y1="8.6529999" x2="16.653799" y2="8.6529999" id="line24731" />
   <line class="cls-2" x1="4.6875" y1="12.806" x2="16.653799" y2="12.806" id="line24733" />
   <line class="cls-2" x1="4.6875" y1="16.959" x2="16.653799" y2="16.959" id="line24735" />
   <path class="cls-3" d="m 24.004,17 a 7.0066,7.0066 0 1 1 -7.0066,-7 7.0033,7.0033 0 0 1 7.0066,7 z" id="path24737" />
   <line class="cls-4" x1="17.101299" y1="13.6312" x2="17.101299" y2="20.631201" id="line24739" />
   <polyline class="cls-4" points="15.346 17.164 18.101 14.412 20.856 17.164" id="polyline24741" transform="translate(-1,-1)" />
</svg>
