<?xml version="1.0" encoding="UTF-8" standalone="no"?>
<svg
   xmlns:dc="http://purl.org/dc/elements/1.1/"
   xmlns:cc="http://creativecommons.org/ns#"
   xmlns:rdf="http://www.w3.org/1999/02/22-rdf-syntax-ns#"
   xmlns:svg="http://www.w3.org/2000/svg"
   xmlns="http://www.w3.org/2000/svg"
   xmlns:sodipodi="http://sodipodi.sourceforge.net/DTD/sodipodi-0.dtd"
   xmlns:inkscape="http://www.inkscape.org/namespaces/inkscape"
   id="Слой_1"
   data-name="Слой 1"
   viewBox="0 0 24 24"
   version="1.1"
   sodipodi:docname="group_ungroup.svg"
   inkscape:version="1.0.2 (e86c870879, 2021-01-15)"
   inkscape:export-filename="/Users/jeff/kicad_dev/kicad/bitmaps_png/group.png"
   inkscape:export-xdpi="96"
   inkscape:export-ydpi="96">
  <sodipodi:namedview
     pagecolor="#111111"
     bordercolor="#666666"
     borderopacity="1"
     objecttolerance="10"
     gridtolerance="10"
     guidetolerance="10"
     inkscape:pageopacity="0"
     inkscape:pageshadow="2"
     inkscape:window-width="3840"
     inkscape:window-height="2099"
     id="namedview30"
     showgrid="true"
     inkscape:zoom="30.702139"
     inkscape:cx="25.708317"
     inkscape:cy="1.5168099"
     inkscape:window-x="0"
     inkscape:window-y="37"
     inkscape:window-maximized="1"
     inkscape:document-rotation="0"
     inkscape:current-layer="Слой_1">
    <inkscape:grid
       type="xygrid"
       id="grid_kicad"
       spacingx="0.5"
       spacingy="0.5"
       color="#9999ff"
       opacity="0.13"
       empspacing="2"
       visible="true" />
  </sodipodi:namedview>
  <metadata
     id="metadata43">
    <rdf:RDF>
      <cc:Work
         rdf:about="">
        <cc:license
           rdf:resource="http://creativecommons.org/licenses/by-sa/4.0/" />
        <dc:format>image/svg+xml</dc:format>
        <dc:type
           rdf:resource="http://purl.org/dc/dcmitype/StillImage" />
        <dc:title>group</dc:title>
      </cc:Work>
      <cc:License
         rdf:about="http://creativecommons.org/licenses/by-sa/4.0/">
        <cc:permits
           rdf:resource="http://creativecommons.org/ns#Reproduction" />
        <cc:permits
           rdf:resource="http://creativecommons.org/ns#Distribution" />
        <cc:requires
           rdf:resource="http://creativecommons.org/ns#Notice" />
        <cc:requires
           rdf:resource="http://creativecommons.org/ns#Attribution" />
        <cc:permits
           rdf:resource="http://creativecommons.org/ns#DerivativeWorks" />
        <cc:requires
           rdf:resource="http://creativecommons.org/ns#ShareAlike" />
      </cc:License>
    </rdf:RDF>
  </metadata>
  <defs
     id="defs7">
    <style
       id="style5">.cls-1,.cls-2{fill:none;stroke:#8f8f8f;stroke-linecap:round;stroke-linejoin:round;}.cls-2{stroke-dasharray:5 5;}.cls-3{fill:#F4EFF3;}</style>
  </defs>
  <title
     id="title9">group</title>
  <rect
     style="fill:#111111;fill-opacity:1;fill-rule:evenodd;stroke:#F4EFF3;stroke-width:1;stroke-miterlimit:4;stroke-dasharray:none;stroke-opacity:1"
     id="rect2613"
     width="11"
     height="11"
     x="3.5"
     y="3.5" />
  <rect
     style="fill:#111111;fill-opacity:1;fill-rule:evenodd;stroke:#F4EFF3;stroke-width:1;stroke-miterlimit:4;stroke-dasharray:none;stroke-opacity:1"
     id="rect2613-6"
     width="11"
     height="11"
     x="9.5"
     y="9.5" />
  <rect
     class="cls-3"
     x="2"
     y="2"
     width="3"
     height="3"
     id="rect29"
     style="stroke-width:1" />
  <rect
     class="cls-3"
     x="13"
     y="2"
     width="3"
     height="3"
     id="rect33"
     style="stroke-width:1" />
  <path
     style="fill:none;stroke:#111111;stroke-width:0.999997px;stroke-linecap:butt;stroke-linejoin:miter;stroke-opacity:1"
     d="m 12,8.5 h 3"
     id="path957"
     inkscape:transform-center-x="-1.0161129"
     inkscape:transform-center-y="-1.2847622" />
  <path
     style="fill:none;stroke:#111111;stroke-width:0.999997px;stroke-linecap:butt;stroke-linejoin:miter;stroke-opacity:1"
     d="M 8.5,15 V 12"
     id="path959"
     inkscape:transform-center-x="1.2847622"
     inkscape:transform-center-y="-1.0161132" />
  <rect
     class="cls-3"
     x="8"
     y="8"
     width="3"
     height="3"
     id="rect1032"
     style="stroke-width:1" />
  <rect
     class="cls-3"
     x="2"
     y="13"
     width="3"
     height="3"
     id="rect1034"
     style="stroke-width:1" />
  <rect
     class="cls-3"
     x="19"
     y="8"
     width="3"
     height="3"
     id="rect1036"
     style="stroke-width:1" />
  <rect
     class="cls-3"
     x="19"
     y="19"
     width="3"
     height="3"
     id="rect1038"
     style="stroke-width:1" />
  <rect
     class="cls-3"
     x="8"
     y="19"
     width="3"
     height="3"
     id="rect1040"
     style="stroke-width:1" />
</svg>
