<?xml version="1.0" encoding="UTF-8" standalone="no"?>
<svg
   xmlns:dc="http://purl.org/dc/elements/1.1/"
   xmlns:cc="http://creativecommons.org/ns#"
   xmlns:rdf="http://www.w3.org/1999/02/22-rdf-syntax-ns#"
   xmlns:svg="http://www.w3.org/2000/svg"
   xmlns="http://www.w3.org/2000/svg"
   xmlns:sodipodi="http://sodipodi.sourceforge.net/DTD/sodipodi-0.dtd"
   xmlns:inkscape="http://www.inkscape.org/namespaces/inkscape"
   id="Слой_1"
   data-name="Слой 1"
   viewBox="0 0 16 16"
   version="1.1"
   sodipodi:docname="icon_gerbview_16.svg"
   width="16"
   height="16"
   inkscape:version="1.0.1 (3bc2e813f5, 2020-09-07)"
   inkscape:export-filename="/Users/jeff/kicad_dev/kicad/bitmaps_png/png_48/icon_gerbview.png"
   inkscape:export-xdpi="96"
   inkscape:export-ydpi="96">
  <sodipodi:namedview
     pagecolor="#111111"
     bordercolor="#666666"
     borderopacity="1"
     objecttolerance="10"
     gridtolerance="10"
     guidetolerance="10"
     inkscape:pageopacity="0"
     inkscape:pageshadow="2"
     inkscape:window-width="3840"
     inkscape:window-height="2099"
     id="namedview1713"
     showgrid="true"
     inkscape:zoom="64.000003"
     inkscape:cx="2.8358924"
     inkscape:cy="4.7693335"
     inkscape:window-x="0"
     inkscape:window-y="37"
     inkscape:window-maximized="1"
     inkscape:current-layer="g953"
     inkscape:document-rotation="0"
     inkscape:snap-nodes="false"
     inkscape:snap-global="true"
     inkscape:snap-bbox="true"
     inkscape:bbox-paths="true"
     inkscape:bbox-nodes="true">
    <inkscape:grid
       type="xygrid"
       id="grid2276"
       spacingx="0.5"
       spacingy="0.5"
       empspacing="2"
       color="#9090ff"
       opacity="0.1254902" />
  </sodipodi:namedview>
  <metadata
     id="metadata43">
    <rdf:RDF>
      <cc:Work
         rdf:about="">
        <cc:license
           rdf:resource="http://creativecommons.org/licenses/by-sa/4.0/" />
        <dc:format>image/svg+xml</dc:format>
        <dc:type
           rdf:resource="http://purl.org/dc/dcmitype/StillImage" />
        <dc:title>icon_gerbview</dc:title>
      </cc:Work>
      <cc:License
         rdf:about="http://creativecommons.org/licenses/by-sa/4.0/">
        <cc:permits
           rdf:resource="http://creativecommons.org/ns#Reproduction" />
        <cc:permits
           rdf:resource="http://creativecommons.org/ns#Distribution" />
        <cc:requires
           rdf:resource="http://creativecommons.org/ns#Notice" />
        <cc:requires
           rdf:resource="http://creativecommons.org/ns#Attribution" />
        <cc:permits
           rdf:resource="http://creativecommons.org/ns#DerivativeWorks" />
        <cc:requires
           rdf:resource="http://creativecommons.org/ns#ShareAlike" />
      </cc:License>
    </rdf:RDF>
  </metadata>
  <defs
     id="defs1668">
    <style
       id="style1666">.cls-1{fill:#F4EFF3;}.cls-2{fill:#8f8f8f;}.cls-3{fill:#42B8EB;}</style>
    <clipPath
       clipPathUnits="userSpaceOnUse"
       id="clipPath879">
      <rect
         class="cls-1"
         x="0.069290601"
         y="0.086129427"
         width="32.022923"
         height="31.998209"
         rx="5.3366876"
         id="rect881"
         style="fill:#F4EFF3;stroke-width:0.666906" />
    </clipPath>
    <clipPath
       clipPathUnits="userSpaceOnUse"
       id="clipPath883">
      <rect
         class="cls-1"
         x="0.069290601"
         y="0.086129427"
         width="32.022923"
         height="31.998209"
         rx="5.3366876"
         id="rect885"
         style="fill:#F4EFF3;stroke-width:0.666906" />
    </clipPath>
    <clipPath
       clipPathUnits="userSpaceOnUse"
       id="clipPath887">
      <rect
         class="cls-1"
         x="0.069290601"
         y="0.086129427"
         width="32.022923"
         height="31.998209"
         rx="5.3366876"
         id="rect889"
         style="fill:#F4EFF3;stroke-width:0.666906" />
    </clipPath>
    <clipPath
       clipPathUnits="userSpaceOnUse"
       id="clipPath891">
      <rect
         class="cls-1"
         x="0.069290601"
         y="0.086129427"
         width="32.022923"
         height="31.998209"
         rx="5.3366876"
         id="rect893"
         style="fill:#F4EFF3;stroke-width:0.666906" />
    </clipPath>
    <clipPath
       clipPathUnits="userSpaceOnUse"
       id="clipPath895">
      <rect
         class="cls-1"
         x="0.069290601"
         y="0.086129427"
         width="32.022923"
         height="31.998209"
         rx="5.3366876"
         id="rect897"
         style="fill:#F4EFF3;stroke-width:0.666906" />
    </clipPath>
    <clipPath
       clipPathUnits="userSpaceOnUse"
       id="clipPath899">
      <rect
         class="cls-1"
         x="0.069290601"
         y="0.086129427"
         width="32.022923"
         height="31.998209"
         rx="5.3366876"
         id="rect901"
         style="fill:#F4EFF3;stroke-width:0.666906" />
    </clipPath>
    <clipPath
       clipPathUnits="userSpaceOnUse"
       id="clipPath907">
      <rect
         class="cls-1"
         x="0.069290601"
         y="0.086129427"
         width="32.022923"
         height="31.998209"
         rx="5.3366876"
         id="rect909"
         style="fill:#F4EFF3;stroke-width:0.666906" />
    </clipPath>
    <clipPath
       clipPathUnits="userSpaceOnUse"
       id="clipPath915">
      <rect
         class="cls-1"
         x="0.069290601"
         y="0.086129427"
         width="32.022923"
         height="31.998209"
         rx="5.3366876"
         id="rect917"
         style="fill:#F4EFF3;stroke-width:0.666906" />
    </clipPath>
    <clipPath
       clipPathUnits="userSpaceOnUse"
       id="clipPath919">
      <rect
         class="cls-1"
         x="0.069290601"
         y="0.086129427"
         width="32.022923"
         height="31.998209"
         rx="5.3366876"
         id="rect921"
         style="fill:#F4EFF3;stroke-width:0.666906" />
    </clipPath>
    <clipPath
       clipPathUnits="userSpaceOnUse"
       id="clipPath923">
      <rect
         class="cls-1"
         x="0.069290601"
         y="0.086129427"
         width="32.022923"
         height="31.998209"
         rx="5.3366876"
         id="rect925"
         style="fill:#F4EFF3;stroke-width:0.666906" />
    </clipPath>
    <clipPath
       clipPathUnits="userSpaceOnUse"
       id="clipPath927">
      <rect
         class="cls-1"
         x="0.069290601"
         y="0.086129427"
         width="32.022923"
         height="31.998209"
         rx="5.3366876"
         id="rect929"
         style="fill:#F4EFF3;stroke-width:0.666906" />
    </clipPath>
    <clipPath
       clipPathUnits="userSpaceOnUse"
       id="clipPath931">
      <rect
         class="cls-1"
         x="0.069290601"
         y="0.086129427"
         width="32.022923"
         height="31.998209"
         rx="5.3366876"
         id="rect933"
         style="fill:#F4EFF3;stroke-width:0.666906" />
    </clipPath>
    <clipPath
       clipPathUnits="userSpaceOnUse"
       id="clipPath935">
      <rect
         class="cls-1"
         x="0.069290601"
         y="0.086129427"
         width="32.022923"
         height="31.998209"
         rx="5.3366876"
         id="rect937"
         style="fill:#F4EFF3;stroke-width:0.666906" />
    </clipPath>
    <clipPath
       clipPathUnits="userSpaceOnUse"
       id="clipPath939">
      <rect
         class="cls-1"
         x="0.069290601"
         y="0.086129427"
         width="32.022923"
         height="31.998209"
         rx="5.3366876"
         id="rect941"
         style="fill:#F4EFF3;stroke-width:0.666906" />
    </clipPath>
    <clipPath
       clipPathUnits="userSpaceOnUse"
       id="clipPath943">
      <rect
         class="cls-1"
         x="0.069290601"
         y="0.086129427"
         width="32.022923"
         height="31.998209"
         rx="5.3366876"
         id="rect945"
         style="fill:#F4EFF3;stroke-width:0.666906" />
    </clipPath>
    <clipPath
       clipPathUnits="userSpaceOnUse"
       id="clipPath947">
      <rect
         class="cls-1"
         x="0.069290601"
         y="0.086129427"
         width="32.022923"
         height="31.998209"
         rx="5.3366876"
         id="rect949"
         style="fill:#F4EFF3;stroke-width:0.666906" />
    </clipPath>
    <clipPath
       clipPathUnits="userSpaceOnUse"
       id="clipPath993">
      <rect
         class="cls-1"
         x="7.9579225"
         y="9.1722584"
         width="32.022923"
         height="31.998207"
         rx="5.3366876"
         id="rect995"
         style="fill:#F4EFF3;stroke-width:0.666906" />
    </clipPath>
    <clipPath
       clipPathUnits="userSpaceOnUse"
       id="clipPath997">
      <rect
         class="cls-1"
         x="5.1039362"
         y="8.7815056"
         width="24.017191"
         height="21.332138"
         rx="4.0025158"
         id="rect999"
         style="fill:#F4EFF3;stroke-width:0.471574" />
    </clipPath>
    <clipPath
       clipPathUnits="userSpaceOnUse"
       id="clipPath1001">
      <rect
         class="cls-1"
         x="5.1039362"
         y="1.7815059"
         width="24.017191"
         height="21.332138"
         rx="4.0025158"
         id="rect1003"
         style="fill:#F4EFF3;stroke-width:0.471574" />
    </clipPath>
    <clipPath
       clipPathUnits="userSpaceOnUse"
       id="clipPath1005">
      <rect
         class="cls-1"
         x="0.27220419"
         y="3.1722589"
         width="32.022923"
         height="31.998207"
         rx="5.3366876"
         id="rect1007"
         style="fill:#F4EFF3;stroke-width:0.666906" />
    </clipPath>
    <clipPath
       clipPathUnits="userSpaceOnUse"
       id="clipPath1009">
      <rect
         class="cls-1"
         x="0.069290601"
         y="0.086129434"
         width="32.022923"
         height="31.998207"
         rx="5.3366876"
         id="rect1011"
         style="fill:#F4EFF3;stroke-width:0.666906" />
    </clipPath>
    <clipPath
       clipPathUnits="userSpaceOnUse"
       id="clipPath1013">
      <rect
         class="cls-1"
         x="-0.14936338"
         y="9.1722584"
         width="32.022923"
         height="31.998207"
         rx="5.3366876"
         id="rect1015"
         style="fill:#F4EFF3;stroke-width:0.666906" />
    </clipPath>
    <clipPath
       clipPathUnits="userSpaceOnUse"
       id="clipPath1017">
      <rect
         class="cls-1"
         x="0.069290601"
         y="0.086129427"
         width="16.011461"
         height="15.999104"
         rx="2.6683438"
         id="rect1019"
         style="fill:#F4EFF3;stroke-width:0.333453" />
    </clipPath>
    <clipPath
       clipPathUnits="userSpaceOnUse"
       id="clipPath1021">
      <rect
         class="cls-1"
         x="-0.46741879"
         y="0.17297886"
         width="32.022923"
         height="31.998207"
         rx="5.3366876"
         id="rect1023"
         style="fill:#F4EFF3;stroke-width:0.666906" />
    </clipPath>
    <clipPath
       clipPathUnits="userSpaceOnUse"
       id="clipPath1025">
      <rect
         class="cls-1"
         x="0.069290601"
         y="1.0861294"
         width="32.022923"
         height="31.998207"
         rx="5.3366876"
         id="rect1027"
         style="fill:#F4EFF3;stroke-width:0.666906" />
    </clipPath>
    <clipPath
       clipPathUnits="userSpaceOnUse"
       id="clipPath1029">
      <rect
         class="cls-1"
         x="0.1992522"
         y="3.1712589"
         width="32.022923"
         height="31.998207"
         rx="5.3366876"
         id="rect1031"
         style="fill:#F4EFF3;stroke-width:0.666906" />
    </clipPath>
    <clipPath
       clipPathUnits="userSpaceOnUse"
       id="clipPath1033">
      <rect
         class="cls-1"
         x="3.103936"
         y="8.7815056"
         width="24.017191"
         height="21.332138"
         rx="4.0025158"
         id="rect1035"
         style="fill:#F4EFF3;stroke-width:0.471574" />
    </clipPath>
    <clipPath
       clipPathUnits="userSpaceOnUse"
       id="clipPath1037">
      <rect
         class="cls-1"
         x="3.103936"
         y="1.7815059"
         width="24.017191"
         height="21.332138"
         rx="4.0025158"
         id="rect1039"
         style="fill:#F4EFF3;stroke-width:0.471574" />
    </clipPath>
    <clipPath
       clipPathUnits="userSpaceOnUse"
       id="clipPath1041">
      <rect
         class="cls-1"
         x="7.2848692"
         y="2.9224126"
         width="17.625223"
         height="17.599012"
         rx="2.9372807"
         id="rect1043"
         style="fill:#F4EFF3;stroke-width:0.36693" />
    </clipPath>
    <clipPath
       clipPathUnits="userSpaceOnUse"
       id="clipPath1045">
      <rect
         class="cls-1"
         x="0.069290601"
         y="0.086129434"
         width="32.022923"
         height="31.998207"
         rx="5.3366876"
         id="rect1047"
         style="fill:#F4EFF3;stroke-width:0.666906" />
    </clipPath>
  </defs>
  <title
     id="title1670">icon_gerbview</title>
  <g
     id="g953"
     clip-path="url(#clipPath955)">
    <rect
       class="cls-1"
       x="0.069290601"
       y="0.086129427"
       width="32.022923"
       height="31.998209"
       rx="5.3366876"
       id="rect2402"
       style="fill:#F4EFF3;stroke-width:0.666906"
       clip-path="url(#clipPath1045)"
       transform="matrix(0.5,0,0,0.5,0.0346453,0.04306471)" />
    <path
       class="cls-2"
       d="M 18.216474,8.327361 A 2.2015758,2.1999998 0 1 1 16.015208,6.1276699 2.2011123,2.1995365 0 0 1 18.216474,8.327361 Z"
       id="path1706"
       style="fill:#8f8f8f;stroke-width:0.666906"
       clip-path="url(#clipPath1041)"
       inkscape:connector-curvature="0"
       transform="matrix(0.90844022,0,0,0.90909099,-6.5485777,-2.5706095)" />
    <rect
       class="cls-2"
       x="6"
       y="3"
       width="6"
       height="4"
       id="rect2278"
       style="fill:#8f8f8f;stroke-width:0.774597"
       ry="0.45635894"
       clip-path="url(#clipPath1037)"
       transform="matrix(0.66666667,0,0,0.75,-2,-1.25)" />
    <rect
       class="cls-2"
       x="6"
       y="18"
       width="6"
       height="4"
       id="rect2282"
       style="fill:#8f8f8f;stroke-width:0.774597"
       ry="0.45635894"
       clip-path="url(#clipPath1033)"
       transform="matrix(0.66666667,0,0,0.75,-2,-6.5)" />
    <path
       style="fill:none;stroke:#8f8f8f;stroke-width:4;stroke-linecap:butt;stroke-linejoin:miter;stroke-miterlimit:4;stroke-dasharray:none;stroke-opacity:1"
       d="M 16.056373,-0.15879758 V 16.944163 l 3.057386,3.055197 h 2.946912"
       id="path2292"
       clip-path="url(#clipPath1029)"
       sodipodi:nodetypes="cccc"
       inkscape:connector-curvature="0"
       transform="matrix(0.5,0,0,0.5,-0.0303355,-1.4995)" />
    <path
       style="fill:none;stroke:#8f8f8f;stroke-width:2.00072;stroke-linecap:butt;stroke-linejoin:miter;stroke-miterlimit:4;stroke-dasharray:none;stroke-opacity:1"
       d="M 9.00036,3.9999994 V -2"
       id="path2298"
       clip-path="url(#clipPath1025)"
       inkscape:connector-curvature="0"
       transform="matrix(0.5,0,0,0.5,0.0346453,-0.45693529)" />
    <path
       style="fill:none;stroke:#8f8f8f;stroke-width:2.00072;stroke-linecap:butt;stroke-linejoin:miter;stroke-miterlimit:4;stroke-dasharray:none;stroke-opacity:1"
       d="M 22.394,5.00036 H 33.234491"
       id="path2300"
       clip-path="url(#clipPath1021)"
       sodipodi:nodetypes="cc"
       inkscape:connector-curvature="0"
       transform="matrix(0.5,0,0,0.5,0.303,-3.6000603e-4)" />
    <path
       style="fill:none;stroke:#8f8f8f;stroke-width:1.00036;stroke-linecap:butt;stroke-linejoin:miter;stroke-miterlimit:4;stroke-dasharray:none;stroke-opacity:1"
       d="m 11,8.50018 h 5.837512"
       id="path2304"
       clip-path="url(#clipPath1017)"
       sodipodi:nodetypes="cc"
       inkscape:connector-curvature="0" />
    <path
       class="cls-2"
       d="M 4.7149206,19.999719 A 2.0014326,1.9999999 0 1 1 2.7137688,18 2.0010113,1.9995787 0 0 1 4.7149206,19.999719 Z"
       id="path1710"
       style="fill:#8f8f8f;stroke-width:0.666906"
       clip-path="url(#clipPath1013)"
       inkscape:connector-curvature="0"
       transform="matrix(0.5,0,0,0.5,0.14397229,-4.4999999)" />
    <path
       style="fill:#8f8f8f;fill-opacity:1;stroke:none;stroke-width:0.666906px;stroke-linecap:butt;stroke-linejoin:miter;stroke-opacity:1"
       d="M 1.9699029,25.929849 -0.7522018,25.889114 -0.62223316,37.666666 12.919088,37.687497 12.903182,26.953072 11.9227,25.904916 8.9910991,25.96297 7.0914835,24 h -3.043707"
       id="path2312"
       clip-path="url(#clipPath1009)"
       sodipodi:nodetypes="ccccccccc"
       inkscape:connector-curvature="0"
       transform="matrix(0.5,0,0,0.5,0.0346453,0.04306471)" />
    <path
       style="fill:none;stroke:#8f8f8f;stroke-width:2.001;stroke-linecap:butt;stroke-linejoin:miter;stroke-miterlimit:4;stroke-dasharray:none;stroke-opacity:1"
       d="m 11.133623,20.0005 h 1.960964 l 4.064991,4.123386 v 13.959559"
       id="path3158"
       clip-path="url(#clipPath1005)"
       inkscape:connector-curvature="0"
       sodipodi:nodetypes="cccc"
       transform="matrix(0.5,0,0,0.5,-0.0668115,-1.5)" />
    <rect
       class="cls-2"
       x="20"
       y="3"
       width="6"
       height="4"
       id="rect873"
       style="fill:#8f8f8f;stroke-width:0.774597"
       ry="0.45635894"
       clip-path="url(#clipPath1001)"
       transform="matrix(0.66666667,0,0,0.75,-3.3333334,-1.25)" />
    <rect
       class="cls-2"
       x="20"
       y="18"
       width="6"
       height="4"
       id="rect875"
       style="fill:#8f8f8f;stroke-width:0.774597"
       ry="0.45635894"
       clip-path="url(#clipPath997)"
       transform="matrix(0.66666667,0,0,0.75,-3.3333334,-6.5)" />
    <path
       style="fill:none;stroke:#8f8f8f;stroke-width:2.001;stroke-linecap:butt;stroke-linejoin:miter;stroke-miterlimit:4;stroke-dasharray:none;stroke-opacity:1"
       d="m 11.133623,20.0005 h 1.960964 l 3.042618,3.040439 0,3.154113"
       id="path989"
       clip-path="url(#clipPath993)"
       inkscape:connector-curvature="0"
       sodipodi:nodetypes="cccc"
       transform="matrix(0.5,0,0,0.5,-3.9096706,-4.5)" />
  </g>
</svg>
