<?xml version="1.0" encoding="UTF-8" standalone="no"?>
<svg
   xmlns:dc="http://purl.org/dc/elements/1.1/"
   xmlns:cc="http://creativecommons.org/ns#"
   xmlns:rdf="http://www.w3.org/1999/02/22-rdf-syntax-ns#"
   xmlns:svg="http://www.w3.org/2000/svg"
   xmlns="http://www.w3.org/2000/svg"
   xmlns:sodipodi="http://sodipodi.sourceforge.net/DTD/sodipodi-0.dtd"
   xmlns:inkscape="http://www.inkscape.org/namespaces/inkscape"
   id="Слой_1"
   data-name="Слой 1"
   viewBox="0 0 48 48"
   version="1.1"
   sodipodi:docname="icon_modedit.svg"
   inkscape:version="0.92.2 5c3e80d, 2017-08-06"
   width="48"
   height="48"
   inkscape:export-filename="/Users/jeff/kicad_dev/kicad/bitmaps_png/png_48/icon_modedit.png"
   inkscape:export-xdpi="96"
   inkscape:export-ydpi="96">
  <sodipodi:namedview
     pagecolor="#111111"
     bordercolor="#666666"
     borderopacity="1"
     objecttolerance="10"
     gridtolerance="10"
     guidetolerance="10"
     inkscape:pageopacity="0"
     inkscape:pageshadow="2"
     inkscape:window-width="1438"
     inkscape:window-height="798"
     id="namedview966"
     showgrid="true"
     inkscape:zoom="9.8858965"
     inkscape:cx="28.254977"
     inkscape:cy="15.459496"
     inkscape:window-x="1"
     inkscape:window-y="0"
     inkscape:window-maximized="0"
     inkscape:current-layer="Слой_1">
    <inkscape:grid
       type="xygrid"
       id="grid1532"
       spacingx="0.5"
       spacingy="0.5"
       empspacing="2"
       color="#7a7ac4"
       opacity="0.1254902" />
  </sodipodi:namedview>
  <metadata
     id="metadata43">
    <rdf:RDF>
      <cc:Work
         rdf:about="">
        <cc:license
           rdf:resource="http://creativecommons.org/licenses/by-sa/4.0/" />
        <dc:format>image/svg+xml</dc:format>
        <dc:type
           rdf:resource="http://purl.org/dc/dcmitype/StillImage" />
        <dc:title>add_arc</dc:title>
      </cc:Work>
      <cc:License
         rdf:about="http://creativecommons.org/licenses/by-sa/4.0/">
        <cc:permits
           rdf:resource="http://creativecommons.org/ns#Reproduction" />
        <cc:permits
           rdf:resource="http://creativecommons.org/ns#Distribution" />
        <cc:requires
           rdf:resource="http://creativecommons.org/ns#Notice" />
        <cc:requires
           rdf:resource="http://creativecommons.org/ns#Attribution" />
        <cc:permits
           rdf:resource="http://creativecommons.org/ns#DerivativeWorks" />
        <cc:requires
           rdf:resource="http://creativecommons.org/ns#ShareAlike" />
      </cc:License>
    </rdf:RDF>
  </metadata>
  <defs
     id="defs945">
    <style
       id="style943">.cls-1{fill:#8f8f8f;}.cls-2{fill:#F4EFF3;}.cls-3{fill:#42B8EB;}</style>
  </defs>
  <title
     id="title947">icon_modedit</title>
  <path
     style="fill:#acbac8;fill-opacity:1;stroke:#F4EFF3;stroke-width:1.99999988;stroke-linecap:butt;stroke-linejoin:round;stroke-miterlimit:4;stroke-dasharray:none;stroke-opacity:1"
     d="m 5,9 v 9.705882 L 7,21 v 6 L 5,29.294118 V 39 H 43 V 9 Z"
     id="path1530"
     sodipodi:nodetypes="ccccccccc"
     inkscape:connector-curvature="0" />
  <rect
     class="cls-3"
     x="8"
     y="4"
     width="8.0590916"
     height="12.96"
     id="rect961"
     ry="0.94370425"
     style="fill:#42B8EB;stroke-width:1" />
  <rect
     class="cls-3"
     x="19.970455"
     y="4.0200014"
     width="8.0590916"
     height="12.96"
     id="rect2291"
     ry="0.94370425"
     style="fill:#42B8EB;stroke-width:1" />
  <rect
     class="cls-3"
     x="31.940908"
     y="4"
     width="8.0590916"
     height="13"
     id="rect2293"
     ry="0.94370425"
     style="fill:#42B8EB;stroke-width:1" />
  <rect
     class="cls-3"
     x="8"
     y="31"
     width="8.0590916"
     height="12.96"
     id="rect2295"
     ry="0.94370425"
     style="fill:#42B8EB;stroke-width:1" />
  <rect
     class="cls-3"
     x="19.970455"
     y="31.02"
     width="8.0590916"
     height="12.96"
     id="rect2297"
     ry="0.94370425"
     style="fill:#42B8EB;stroke-width:1" />
  <rect
     class="cls-3"
     x="32"
     y="31"
     width="8.0590916"
     height="12.96"
     id="rect2299"
     ry="0.94370425"
     style="fill:#42B8EB;stroke-width:1" />
</svg>
