<?xml version="1.0" encoding="UTF-8" standalone="no"?>
<svg
   xmlns:dc="http://purl.org/dc/elements/1.1/"
   xmlns:cc="http://creativecommons.org/ns#"
   xmlns:rdf="http://www.w3.org/1999/02/22-rdf-syntax-ns#"
   xmlns:svg="http://www.w3.org/2000/svg"
   xmlns="http://www.w3.org/2000/svg"
   xmlns:sodipodi="http://sodipodi.sourceforge.net/DTD/sodipodi-0.dtd"
   xmlns:inkscape="http://www.inkscape.org/namespaces/inkscape"
   id="Слой_1"
   data-name="Слой 1"
   viewBox="0 0 24 24"
   version="1.1"
   sodipodi:docname="net_highlight.svg"
   inkscape:version="1.0.1 (3bc2e813f5, 2020-09-07)"
   inkscape:export-filename="/Users/jeff/kicad_dev/kicad/bitmaps_png/png_26/net_highlight.png"
   inkscape:export-xdpi="96"
   inkscape:export-ydpi="96">
  <sodipodi:namedview
     pagecolor="#111111"
     bordercolor="#666666"
     borderopacity="1"
     objecttolerance="10"
     gridtolerance="10"
     guidetolerance="10"
     inkscape:pageopacity="0"
     inkscape:pageshadow="2"
     inkscape:window-width="2478"
     inkscape:window-height="1573"
     id="namedview34"
     showgrid="true"
     inkscape:zoom="37.889139"
     inkscape:cx="8.4228849"
     inkscape:cy="10.805587"
     inkscape:window-x="0"
     inkscape:window-y="37"
     inkscape:window-maximized="0"
     inkscape:current-layer="Слой_1"
     inkscape:document-rotation="0"
     inkscape:measure-start="0,0"
     inkscape:measure-end="0,0">
    <inkscape:grid
       type="xygrid"
       id="grid1566"
       color="#ceceff"
       opacity="0.1254902"
       spacingx="0.5"
       spacingy="0.5"
       empspacing="2" />
  </sodipodi:namedview>
  <metadata
     id="metadata43">
    <rdf:RDF>
      <cc:Work
         rdf:about="">
        <cc:license
           rdf:resource="http://creativecommons.org/licenses/by-sa/4.0/" />
        <dc:format>image/svg+xml</dc:format>
        <dc:type
           rdf:resource="http://purl.org/dc/dcmitype/StillImage" />
        <dc:title>add_arc</dc:title>
      </cc:Work>
      <cc:License
         rdf:about="http://creativecommons.org/licenses/by-sa/4.0/">
        <cc:permits
           rdf:resource="http://creativecommons.org/ns#Reproduction" />
        <cc:permits
           rdf:resource="http://creativecommons.org/ns#Distribution" />
        <cc:requires
           rdf:resource="http://creativecommons.org/ns#Notice" />
        <cc:requires
           rdf:resource="http://creativecommons.org/ns#Attribution" />
        <cc:permits
           rdf:resource="http://creativecommons.org/ns#DerivativeWorks" />
        <cc:requires
           rdf:resource="http://creativecommons.org/ns#ShareAlike" />
      </cc:License>
    </rdf:RDF>
  </metadata>
  <defs
     id="defs15">
    <style
       id="style3">.cls-1,.cls-2,.cls-5,.cls-6{fill:none;stroke-linecap:round;stroke-linejoin:round;stroke-width:2px;}.cls-1{stroke:#42B8EB;}.cls-2{stroke:#DC7A8C;}.cls-3{fill:#8f8f8f;}.cls-4{fill:#f29100;}.cls-5{stroke:url(#Безымянный_градиент_19);}.cls-6{stroke:url(#Безымянный_градиент_3);}</style>
    <linearGradient
       id="Безымянный_градиент_19"
       x1="9.2548"
       y1="1.007"
       x2="9.2548"
       y2="25"
       gradientUnits="userSpaceOnUse">
      <stop
         offset="0"
         stop-color="#ececec"
         id="stop5" />
      <stop
         offset="1"
         stop-color="#c6c6c5"
         id="stop7" />
    </linearGradient>
    <linearGradient
       id="Безымянный_градиент_3"
       x1="16.1155"
       y1="7.8618"
       x2="16.1155"
       y2="25"
       gradientUnits="userSpaceOnUse">
      <stop
         offset="0.2526"
         stop-color="#ececec"
         id="stop10" />
      <stop
         offset="1"
         stop-color="#c6c6c5"
         id="stop12" />
    </linearGradient>
  </defs>
  <title
     id="title17">net_highlight</title>
  <path
     id="polyline19"
     style="fill:none;stroke:#42B8EB;stroke-width:2px;stroke-linecap:round;stroke-linejoin:round"
     d="M 24,11 H 16 6"
     sodipodi:nodetypes="ccc"
     inkscape:connector-curvature="0" />
  <path
     id="polyline21"
     style="fill:none;stroke:#DC7A8C;stroke-width:2px;stroke-linecap:round;stroke-linejoin:round"
     d="m 6,10.293247 v 8 8 -8 z"
     sodipodi:nodetypes="ccccc"
     inkscape:connector-curvature="0" />
  <path
     class="cls-4"
     d="M 8.2315,11.0001 A 2.2400001,2.24 0 1 1 5.9915011,8.7600997 2.2403945,2.2403944 0 0 1 8.2315,11.0001 Z"
     id="path25"
     style="fill:#f29100;stroke-width:0.63999999"
     inkscape:connector-curvature="0" />
  <path
     class="cls-3"
     d="M 7.122252,11.00002 A 1.130752,1.130752 0 1 1 5.9915,9.8692679 1.130752,1.130752 0 0 1 7.122252,11.00002 Z"
     id="path27"
     inkscape:connector-curvature="0"
     style="fill:#111111;stroke-width:0.51199996;fill-opacity:1" />
  <path
     id="polyline29"
     style="fill:none;stroke:#848484;stroke-width:2px;stroke-linecap:round;stroke-linejoin:round;stroke-opacity:1"
     d="M -0.5250758,3.007 9,3 14,8 v 17"
     sodipodi:nodetypes="cccc"
     inkscape:connector-curvature="0" />
  <path
     inkscape:connector-curvature="0"
     sodipodi:nodetypes="cccc"
     d="M 3.4749242,-0.993 12,-1 19,5.6049767 V 24.583204"
     style="fill:none;stroke:#848484;stroke-width:2px;stroke-linecap:round;stroke-linejoin:round;stroke-opacity:1"
     id="path856" />
</svg>
