<?xml version="1.0" encoding="UTF-8" standalone="no"?>
<svg
   xmlns:dc="http://purl.org/dc/elements/1.1/"
   xmlns:cc="http://creativecommons.org/ns#"
   xmlns:rdf="http://www.w3.org/1999/02/22-rdf-syntax-ns#"
   xmlns:svg="http://www.w3.org/2000/svg"
   xmlns="http://www.w3.org/2000/svg"
   xmlns:sodipodi="http://sodipodi.sourceforge.net/DTD/sodipodi-0.dtd"
   xmlns:inkscape="http://www.inkscape.org/namespaces/inkscape"
   id="Слой_1"
   data-name="Слой 1"
   viewBox="0 0 24 24"
   version="1.1"
   sodipodi:docname="netlist.svg"
   inkscape:version="1.0.1 (3bc2e813f5, 2020-09-07)">
  <sodipodi:namedview
     pagecolor="#111111"
     bordercolor="#666666"
     borderopacity="1"
     objecttolerance="10"
     gridtolerance="10"
     guidetolerance="10"
     inkscape:pageopacity="0"
     inkscape:pageshadow="2"
     inkscape:window-width="1609"
     inkscape:window-height="1286"
     id="namedview30"
     showgrid="true"
     inkscape:zoom="27.961538"
     inkscape:cx="3.3259971"
     inkscape:cy="13"
     inkscape:window-x="0"
     inkscape:window-y="37"
     inkscape:window-maximized="0"
     inkscape:document-rotation="0"
     inkscape:current-layer="Слой_1">
    <inkscape:grid
       type="xygrid"
       id="grid_kicad"
       spacingx="0.5"
       spacingy="0.5"
       color="#9999ff"
       opacity="0.13"
       empspacing="2" />
  </sodipodi:namedview>
  <metadata
     id="metadata43">
    <rdf:RDF>
      <cc:Work
         rdf:about="">
        <cc:license
           rdf:resource="http://creativecommons.org/licenses/by-sa/4.0/" />
        <dc:format>image/svg+xml</dc:format>
        <dc:type
           rdf:resource="http://purl.org/dc/dcmitype/StillImage" />
        <dc:title>add_arc</dc:title>
      </cc:Work>
      <cc:License
         rdf:about="http://creativecommons.org/licenses/by-sa/4.0/">
        <cc:permits
           rdf:resource="http://creativecommons.org/ns#Reproduction" />
        <cc:permits
           rdf:resource="http://creativecommons.org/ns#Distribution" />
        <cc:requires
           rdf:resource="http://creativecommons.org/ns#Notice" />
        <cc:requires
           rdf:resource="http://creativecommons.org/ns#Attribution" />
        <cc:permits
           rdf:resource="http://creativecommons.org/ns#DerivativeWorks" />
        <cc:requires
           rdf:resource="http://creativecommons.org/ns#ShareAlike" />
      </cc:License>
    </rdf:RDF>
  </metadata>
  <defs
     id="defs158428">
    <style
       id="style158426">.cls-1{fill:#8f8f8f;}.cls-2{fill:none;stroke:#F4EFF3;stroke-linecap:round;stroke-miterlimit:10;stroke-width:2px;}.cls-3{fill:#42B8EB;}.cls-4{fill:#111111;}</style>
  </defs>
  <title
     id="title158430">netlist</title>
  <path
     class="cls-1"
     d="m 5.7023,0.0436 h 14.6105 a 3.6595,3.6595 0 0 1 3.6595,3.6595 V 20.37 a 3.66,3.66 0 0 1 -3.66,3.66 h -14.61 a 3.66,3.66 0 0 1 -3.66,-3.66 V 3.7033 a 3.66,3.66 0 0 1 3.66,-3.6597 z"
     id="path158432" />
  <line
     class="cls-2"
     x1="9.2339001"
     y1="13.5341"
     x2="20.4055"
     y2="13.5341"
     id="line158434" />
  <line
     class="cls-2"
     x1="9.2339001"
     y1="16.959801"
     x2="20.4055"
     y2="16.959801"
     id="line158436" />
  <line
     class="cls-2"
     x1="9.2339001"
     y1="20.385401"
     x2="20.4055"
     y2="20.385401"
     id="line158438" />
  <line
     class="cls-2"
     x1="6.4762001"
     y1="6.7424998"
     x2="6.5239"
     y2="6.7424998"
     id="line158440" />
  <line
     class="cls-2"
     x1="6.4762001"
     y1="13.5341"
     x2="6.5239"
     y2="13.5341"
     id="line158442" />
  <line
     class="cls-2"
     x1="6.4762001"
     y1="16.959801"
     x2="6.5239"
     y2="16.959801"
     id="line158444" />
  <line
     class="cls-2"
     x1="6.4762001"
     y1="20.385401"
     x2="6.5239"
     y2="20.385401"
     id="line158446" />
  <rect
     class="cls-3"
     x="0.053200006"
     y="2.0372"
     width="18.7099"
     height="9.2299004"
     id="rect158448" />
  <path
     class="cls-4"
     d="M 6.5869,9.8564 H 5.5137 L 2.6494,5.1309 2.6221,5.14 V 9.8568 H 1.5449 V 3.3838 H 2.6221 L 5.4873,8.1045 5.5137,8.0957 V 3.3838 h 1.0732 z"
     id="path158450" />
  <path
     class="cls-4"
     d="M 11.9043,6.9443 H 9.0791 v 2.045 h 3.2773 V 9.8564 H 8.002 V 3.3838 h 4.3232 V 4.25 H 9.0791 v 1.8271 h 2.8252 z"
     id="path158452" />
  <path
     class="cls-4"
     d="M 17.7656,4.25 H 15.8145 V 9.8564 H 14.7373 V 4.25 H 12.7861 V 3.3838 h 4.98 z"
     id="path158454" />
</svg>
