<?xml version="1.0" encoding="UTF-8" standalone="no"?>
<svg
   xmlns:dc="http://purl.org/dc/elements/1.1/"
   xmlns:cc="http://creativecommons.org/ns#"
   xmlns:rdf="http://www.w3.org/1999/02/22-rdf-syntax-ns#"
   xmlns:svg="http://www.w3.org/2000/svg"
   xmlns="http://www.w3.org/2000/svg"
   xmlns:sodipodi="http://sodipodi.sourceforge.net/DTD/sodipodi-0.dtd"
   xmlns:inkscape="http://www.inkscape.org/namespaces/inkscape"
   id="Слой_1"
   data-name="Слой 1"
   viewBox="0 0 24 24"
   version="1.1"
   sodipodi:docname="new_project.svg"
   inkscape:version="1.0.1 (c497b03c, 2020-09-10)">
  <sodipodi:namedview
     pagecolor="#111111"
     bordercolor="#666666"
     borderopacity="1"
     objecttolerance="10"
     gridtolerance="10"
     guidetolerance="10"
     inkscape:pageopacity="0"
     inkscape:pageshadow="2"
     inkscape:window-width="1280"
     inkscape:window-height="715"
     id="namedview30"
     showgrid="true"
     inkscape:zoom="28.457191"
     inkscape:cx="11.712737"
     inkscape:cy="7.7878298"
     inkscape:window-x="0"
     inkscape:window-y="23"
     inkscape:window-maximized="0"
     inkscape:document-rotation="0"
     inkscape:current-layer="Слой_1">
    <inkscape:grid
       type="xygrid"
       id="grid_kicad"
       spacingx="0.5"
       spacingy="0.5"
       color="#9999ff"
       opacity="0.13"
       empspacing="2" />
  </sodipodi:namedview>
  <metadata
     id="metadata43">
    <rdf:RDF>
      <cc:Work
         rdf:about="">
        <cc:license
           rdf:resource="http://creativecommons.org/licenses/by-sa/4.0/" />
        <dc:format>image/svg+xml</dc:format>
        <dc:type
           rdf:resource="http://purl.org/dc/dcmitype/StillImage" />
        <dc:title>add_arc</dc:title>
      </cc:Work>
      <cc:License
         rdf:about="http://creativecommons.org/licenses/by-sa/4.0/">
        <cc:permits
           rdf:resource="http://creativecommons.org/ns#Reproduction" />
        <cc:permits
           rdf:resource="http://creativecommons.org/ns#Distribution" />
        <cc:requires
           rdf:resource="http://creativecommons.org/ns#Notice" />
        <cc:requires
           rdf:resource="http://creativecommons.org/ns#Attribution" />
        <cc:permits
           rdf:resource="http://creativecommons.org/ns#DerivativeWorks" />
        <cc:requires
           rdf:resource="http://creativecommons.org/ns#ShareAlike" />
      </cc:License>
    </rdf:RDF>
  </metadata>
  <defs
     id="defs158486">
    <style
       id="style158484">.cls-1{fill:#ededed;}.cls-2{fill:#d8d8d8;}.cls-3{fill:#8f8f8f;}.cls-4{fill:#42B8EB;}.cls-5,.cls-7{fill:none;stroke-linecap:round;stroke-linejoin:round;}.cls-5{stroke:#F4EFF3;}.cls-6{fill:#DC7A8C;}.cls-7{stroke:#545454;stroke-width:2px;}</style>
  </defs>
  <title
     id="title158488">new_project</title>
  <path
     id="rect158494"
     style="fill:#F4EFF3;fill-opacity:1;stroke:none;stroke-width:1"
     d="M 4 1 L 4 23 L 21 23 L 21 5.5 L 15.5 5.5 L 15.5 1 L 4 1 z " />
  <path
     class="cls-4"
     d="M 5.1113,4.9758001 H 3 a 1,1 0 0 1 0,-2 h 2.1113 a 1,1 0 0 1 0,2 z"
     id="path158496" />
  <path
     class="cls-4"
     d="M 5.1113,9.9963 H 3 A 1,1 0 0 1 3,7.9963001 h 2.1113 a 1,1 0 0 1 0,1.9999999 z"
     id="path158498" />
  <path
     class="cls-4"
     d="M 5.1113,16.0178 H 3 a 1,1 0 0 1 0,-2 h 2.1113 a 1,1 0 0 1 0,2 z"
     id="path158500" />
  <path
     class="cls-4"
     d="M 5.1113,21.0392 H 3 a 1,1 0 0 1 0,-2 h 2.1113 a 1,1 0 0 1 0,2 z"
     id="path158502" />
  <path
     style="fill:none;stroke:#545454;stroke-width:1;stroke-linecap:butt;stroke-linejoin:miter;stroke-miterlimit:4;stroke-dasharray:none;stroke-opacity:1"
     d="m 8,6.5 h 6"
     id="path3404" />
  <path
     style="fill:none;stroke:#545454;stroke-width:1;stroke-linecap:butt;stroke-linejoin:miter;stroke-miterlimit:4;stroke-dasharray:none;stroke-opacity:1"
     d="M 8,9.5 H 18"
     id="path3406"
     sodipodi:nodetypes="cc" />
  <path
     style="fill:none;stroke:#545454;stroke-width:1;stroke-linecap:butt;stroke-linejoin:miter;stroke-miterlimit:4;stroke-dasharray:none;stroke-opacity:1"
     d="M 8,12.5 H 18"
     id="path3408"
     sodipodi:nodetypes="cc" />
  <g
     id="g891"
     transform="translate(0,-13)">
    <g
       id="g877">
      <rect
         style="fill:#111111;fill-opacity:1;stroke:none;stroke-width:1;stroke-linecap:round;stroke-linejoin:round"
         id="rect867"
         width="3"
         height="11"
         x="17"
         y="-24"
         transform="rotate(90)" />
      <rect
         style="fill:#111111;fill-opacity:1;stroke:none;stroke-width:1;stroke-linecap:round;stroke-linejoin:round"
         id="rect869"
         width="3"
         height="11"
         x="-1.5"
         y="-31.662951"
         transform="rotate(135)" />
      <rect
         style="fill:#111111;fill-opacity:1;stroke:none;stroke-width:1;stroke-linecap:round;stroke-linejoin:round"
         id="rect871"
         width="3"
         height="11"
         x="24.662951"
         y="-5.5"
         transform="matrix(0.70710678,0.70710678,0.70710678,-0.70710678,0,0)" />
      <rect
         style="fill:#111111;fill-opacity:1;stroke:none;stroke-width:1;stroke-linecap:round;stroke-linejoin:round"
         id="rect863"
         width="3"
         height="11"
         x="17"
         y="13" />
    </g>
    <path
       style="fill:none;stroke:#f29100;stroke-width:1px;stroke-linecap:butt;stroke-linejoin:miter;stroke-opacity:1"
       d="M 18.5,23 V 14"
       id="path938"
       sodipodi:nodetypes="cc" />
    <rect
       style="fill:#f29100;fill-opacity:1;stroke:none;stroke-width:1.5;stroke-linecap:round;stroke-linejoin:round;stroke-miterlimit:4;stroke-dasharray:none;stroke-opacity:1"
       id="rect920"
       width="1"
       height="2"
       x="-0.5"
       y="-23.662951"
       transform="rotate(135)" />
    <rect
       style="fill:#f29100;fill-opacity:1;stroke:none;stroke-width:1.5;stroke-linecap:round;stroke-linejoin:round;stroke-miterlimit:4;stroke-dasharray:none;stroke-opacity:1"
       id="rect924"
       width="2"
       height="1"
       x="-4.5"
       y="-26.662951"
       transform="rotate(135)" />
    <rect
       style="fill:#f29100;fill-opacity:1;stroke:none;stroke-width:1.5;stroke-linecap:round;stroke-linejoin:round;stroke-miterlimit:4;stroke-dasharray:none;stroke-opacity:1"
       id="rect930"
       width="2"
       height="1"
       x="2.5"
       y="-26.662951"
       transform="rotate(135)" />
    <rect
       style="fill:#f29100;fill-opacity:1;stroke:none;stroke-width:1.5;stroke-linecap:round;stroke-linejoin:round;stroke-miterlimit:4;stroke-dasharray:none;stroke-opacity:1"
       id="rect936"
       width="1"
       height="2"
       x="-0.5"
       y="-30.662951"
       transform="rotate(135)" />
    <path
       style="display:inline;fill:none;stroke:#f29100;stroke-width:1px;stroke-linecap:butt;stroke-linejoin:miter;stroke-opacity:1"
       d="m 14,18.5 h 9"
       id="path940"
       sodipodi:nodetypes="cc" />
    <circle
       style="fill:#111111;fill-opacity:1;stroke:#f29100;stroke-width:1;stroke-linecap:round;stroke-linejoin:round"
       id="path855"
       cx="18.499998"
       cy="18.499998"
       r="1.5" />
  </g>
</svg>
