<?xml version="1.0" encoding="UTF-8" standalone="no"?>
<svg
   xmlns:dc="http://purl.org/dc/elements/1.1/"
   xmlns:cc="http://creativecommons.org/ns#"
   xmlns:rdf="http://www.w3.org/1999/02/22-rdf-syntax-ns#"
   xmlns:svg="http://www.w3.org/2000/svg"
   xmlns="http://www.w3.org/2000/svg"
   xmlns:sodipodi="http://sodipodi.sourceforge.net/DTD/sodipodi-0.dtd"
   xmlns:inkscape="http://www.inkscape.org/namespaces/inkscape"
   id="Слой_1"
   data-name="Слой 1"
   viewBox="0 0 24 24"
   version="1.1"
   sodipodi:docname="py_script.svg"
   inkscape:version="1.0.1 (c497b03c, 2020-09-10)">
  <sodipodi:namedview
     pagecolor="#111111"
     bordercolor="#666666"
     borderopacity="1"
     objecttolerance="10"
     gridtolerance="10"
     guidetolerance="10"
     inkscape:pageopacity="0"
     inkscape:pageshadow="2"
     inkscape:window-width="1920"
     inkscape:window-height="1035"
     id="namedview159462"
     showgrid="true"
     inkscape:zoom="29.502981"
     inkscape:cx="21.358289"
     inkscape:cy="12.407353"
     inkscape:window-x="0"
     inkscape:window-y="23"
     inkscape:window-maximized="1"
     inkscape:current-layer="Слой_1"
     inkscape:document-rotation="0">
    <inkscape:grid
       type="xygrid"
       id="grid240594"
       spacingx="0.5"
       spacingy="0.5"
       color="#b6b6ff"
       opacity="0.1254902"
       empspacing="2" />
  </sodipodi:namedview>
  <metadata
     id="metadata43">
    <rdf:RDF>
      <cc:Work
         rdf:about="">
        <cc:license
           rdf:resource="http://creativecommons.org/licenses/by/4.0/" />
        <dc:format>image/svg+xml</dc:format>
        <dc:type
           rdf:resource="http://purl.org/dc/dcmitype/StillImage" />
        <dc:title>py_script</dc:title>
      </cc:Work>
      <cc:License
         rdf:about="http://creativecommons.org/licenses/by/4.0/">
        <cc:permits
           rdf:resource="http://creativecommons.org/ns#Reproduction" />
        <cc:permits
           rdf:resource="http://creativecommons.org/ns#Distribution" />
        <cc:requires
           rdf:resource="http://creativecommons.org/ns#Notice" />
        <cc:requires
           rdf:resource="http://creativecommons.org/ns#Attribution" />
        <cc:permits
           rdf:resource="http://creativecommons.org/ns#DerivativeWorks" />
      </cc:License>
    </rdf:RDF>
  </metadata>
  <defs
     id="defs159441">
    <style
       id="style159439">.cls-1{fill:#8f8f8f;}.cls-2{fill:none;}.cls-2,.cls-3{stroke:#F4EFF3;stroke-miterlimit:10;}.cls-3{fill:#F4EFF3;stroke-width:0.75px;}.cls-4{fill:#42B8EB;}</style>
  </defs>
  <title
     id="title159443">py_script</title>
  <rect
     class="cls-1"
     x="1"
     y="1"
     width="22"
     height="22"
     rx="2"
     id="rect159445"
     style="fill:#F4EFF3;fill-opacity:1;stroke-width:0.999995"
     ry="2" />
  <line
     class="cls-2"
     x1="1"
     y1="6.5"
     x2="23"
     y2="6.5"
     id="line159447"
     style="stroke:#111111;stroke-width:1;stroke-opacity:1" />
  <path
     class="cls-4"
     d="M 4.5,3.5001049 A 1,1 0 1 1 3.5,2.5 a 1,1 0 0 1 1,1.0001049 z"
     id="path159455"
     style="fill:#111111;fill-opacity:1;stroke-width:1" />
  <path
     class="cls-4"
     d="M 7.4999999,3.4999999 A 0.99999998,0.99999998 0 1 1 6.5001047,2.5 0.99989512,0.99989512 0 0 1 7.4999999,3.4999999 Z"
     id="path159457"
     style="fill:#111111;fill-opacity:1;stroke-width:1" />
  <path
     class="cls-4"
     d="M 10.5,3.4999999 A 0.99999998,0.99999998 0 1 1 9.5,2.5 a 0.99999998,0.99999998 0 0 1 1,0.9999999 z"
     id="path159459"
     style="fill:#111111;fill-opacity:1;stroke-width:1" />
  <g
     aria-label="&gt;_"
     id="text7435"
     style="font-style:normal;font-weight:normal;font-size:11.6995px;line-height:1.25;font-family:sans-serif;letter-spacing:0px;word-spacing:0px;fill:#000000;fill-opacity:1;stroke:none;stroke-width:1"
     transform="translate(0,1)">
    <path
       d="M 3,13.5 6.5,12 3,10.5 2.9999991,9.0000079 8.5,11.5 v 1 L 3,15 Z"
       style="font-style:normal;font-variant:normal;font-weight:bold;font-stretch:normal;font-size:11.6995px;font-family:'Noto Sans';-inkscape-font-specification:'Noto Sans Bold';fill:#111111;stroke-width:1"
       id="path847"
       sodipodi:nodetypes="cccccccc" />
    <path
       d="M 14,17 H 9 v -1 h 5 z"
       style="font-style:normal;font-variant:normal;font-weight:bold;font-stretch:normal;font-size:11.6995px;font-family:'Noto Sans';-inkscape-font-specification:'Noto Sans Bold';fill:#111111;stroke-width:1"
       id="path849"
       sodipodi:nodetypes="ccccc" />
  </g>
</svg>
