<?xml version="1.0" encoding="UTF-8" standalone="no"?>
<svg
   xmlns:dc="http://purl.org/dc/elements/1.1/"
   xmlns:cc="http://creativecommons.org/ns#"
   xmlns:rdf="http://www.w3.org/1999/02/22-rdf-syntax-ns#"
   xmlns:svg="http://www.w3.org/2000/svg"
   xmlns="http://www.w3.org/2000/svg"
   xmlns:sodipodi="http://sodipodi.sourceforge.net/DTD/sodipodi-0.dtd"
   xmlns:inkscape="http://www.inkscape.org/namespaces/inkscape"
   version="1.1"
   id="svg867"
   inkscape:version="1.0.1 (c497b03c, 2020-09-10)"
   sodipodi:docname="sheetset.svg"
   x="0px"
   y="0px"
   viewBox="0 0 24 24"
   style="enable-background:new 0 0 24 24;"
   xml:space="preserve"><metadata
   id="metadata848"><rdf:RDF><cc:Work
       rdf:about=""><dc:format>image/svg+xml</dc:format><dc:type
         rdf:resource="http://purl.org/dc/dcmitype/StillImage" /><dc:title /><cc:license
         rdf:resource="http://creativecommons.org/licenses/by-sa/4.0/" /></cc:Work><cc:License
       rdf:about="http://creativecommons.org/licenses/by-sa/4.0/"><cc:permits
         rdf:resource="http://creativecommons.org/ns#Reproduction" /><cc:permits
         rdf:resource="http://creativecommons.org/ns#Distribution" /><cc:requires
         rdf:resource="http://creativecommons.org/ns#Notice" /><cc:requires
         rdf:resource="http://creativecommons.org/ns#Attribution" /><cc:permits
         rdf:resource="http://creativecommons.org/ns#DerivativeWorks" /><cc:requires
         rdf:resource="http://creativecommons.org/ns#ShareAlike" /></cc:License></rdf:RDF></metadata><defs
   id="defs846" />
<style
   type="text/css"
   id="style833">
	.st0{fill:none;stroke:#F4EFF3;}
	.st1{fill:none;stroke:#F4EFF3;stroke-linecap:round;}
	.st2{fill:#545454;stroke:#F4EFF3;stroke-miterlimit:10;}
	.st3{fill:#F4EFF3;}
</style>
<sodipodi:namedview
   bordercolor="#666666"
   borderopacity="1"
   gridtolerance="10"
   guidetolerance="10"
   id="namedview869"
   inkscape:current-layer="svg867"
   inkscape:cx="15.807325"
   inkscape:cy="3.3551474"
   inkscape:pageopacity="0"
   inkscape:pageshadow="2"
   inkscape:window-height="715"
   inkscape:window-maximized="1"
   inkscape:window-width="1280"
   inkscape:window-x="0"
   inkscape:window-y="23"
   inkscape:zoom="54.173823"
   objecttolerance="10"
   pagecolor="#111111"
   showgrid="true"
   inkscape:document-rotation="0">
	<inkscape:grid
   empspacing="2"
   id="grid875"
   type="xygrid" />
</sodipodi:namedview>
<line
   id="line853"
   class="st0"
   x1="4"
   y1="19.5"
   x2="1"
   y2="19.5" />
<line
   id="line855"
   class="st0"
   x1="4"
   y1="1.5"
   x2="1"
   y2="1.5" />
<path
   id="path4372_1_"
   sodipodi:nodetypes="cc"
   class="st1"
   d="M 2.5,1.5 V 19.5"
   style="stroke-width:1" />
<line
   id="line858"
   class="st0"
   x1="19.5"
   y1="21"
   x2="19.5"
   y2="24" />
<line
   id="line860"
   class="st0"
   x1="5.5"
   y1="21"
   x2="5.5"
   y2="24" />
<line
   id="line862"
   class="st1"
   x1="5.5"
   y1="22.5"
   x2="19.5"
   y2="22.5" />
<path
   id="polygon25929_1_"
   sodipodi:nodetypes="cccccc"
   class="st2"
   d="m 15.5,1.5 h -10 v 18 h 14 v -14 z"
   style="stroke-width:1.02721" />
<path
   id="polygon25931"
   sodipodi:nodetypes="cccc"
   class="st3"
   d="M 20,6 15,1 v 5 z" />
</svg>
