<?xml version="1.0" encoding="UTF-8" standalone="no"?>
<svg
   xmlns:dc="http://purl.org/dc/elements/1.1/"
   xmlns:cc="http://creativecommons.org/ns#"
   xmlns:rdf="http://www.w3.org/1999/02/22-rdf-syntax-ns#"
   xmlns:svg="http://www.w3.org/2000/svg"
   xmlns="http://www.w3.org/2000/svg"
   xmlns:sodipodi="http://sodipodi.sourceforge.net/DTD/sodipodi-0.dtd"
   xmlns:inkscape="http://www.inkscape.org/namespaces/inkscape"
   id="Слой_1"
   data-name="Слой 1"
   viewBox="0 0 24 24"
   version="1.1"
   sodipodi:docname="via_hole_diameter.svg"
   inkscape:version="1.0.1 (3bc2e813f5, 2020-09-07)">
  <sodipodi:namedview
     pagecolor="#111111"
     bordercolor="#666666"
     borderopacity="1"
     objecttolerance="10"
     gridtolerance="10"
     guidetolerance="10"
     inkscape:pageopacity="0"
     inkscape:pageshadow="2"
     inkscape:window-width="2470"
     inkscape:window-height="1754"
     id="namedview30"
     showgrid="true"
     inkscape:zoom="27.961538"
     inkscape:cx="2.8144628"
     inkscape:cy="17.070627"
     inkscape:window-x="0"
     inkscape:window-y="37"
     inkscape:window-maximized="0"
     inkscape:document-rotation="0"
     inkscape:current-layer="Слой_1">
    <inkscape:grid
       type="xygrid"
       id="grid_kicad"
       spacingx="0.5"
       spacingy="0.5"
       color="#9999ff"
       opacity="0.13"
       empspacing="2" />
  </sodipodi:namedview>
  <metadata
     id="metadata43">
    <rdf:RDF>
      <cc:Work
         rdf:about="">
        <cc:license
           rdf:resource="http://creativecommons.org/licenses/by-sa/4.0/" />
        <dc:format>image/svg+xml</dc:format>
        <dc:type
           rdf:resource="http://purl.org/dc/dcmitype/StillImage" />
        <dc:title>add_arc</dc:title>
      </cc:Work>
      <cc:License
         rdf:about="http://creativecommons.org/licenses/by-sa/4.0/">
        <cc:permits
           rdf:resource="http://creativecommons.org/ns#Reproduction" />
        <cc:permits
           rdf:resource="http://creativecommons.org/ns#Distribution" />
        <cc:requires
           rdf:resource="http://creativecommons.org/ns#Notice" />
        <cc:requires
           rdf:resource="http://creativecommons.org/ns#Attribution" />
        <cc:permits
           rdf:resource="http://creativecommons.org/ns#DerivativeWorks" />
        <cc:requires
           rdf:resource="http://creativecommons.org/ns#ShareAlike" />
      </cc:License>
    </rdf:RDF>
  </metadata>
  <defs
     id="defs27569">
    <style
       id="style27567">.cls-1,.cls-2,.cls-5{fill:none;stroke-linecap:round;stroke-linejoin:round;}.cls-1{stroke:#DC7A8C;}.cls-1,.cls-2{stroke-width:2px;}.cls-2{stroke:#42B8EB;}.cls-3{fill:#f29100;}.cls-4{fill:#8f8f8f;}.cls-5{stroke:#F4EFF3;}.cls-6{fill:#F4EFF3;}</style>
  </defs>
  <title
     id="title27571">via_hole_diameter</title>
  <path
     id="line27479"
     style="fill:none;stroke:#DC7A8C;stroke-width:4;stroke-linecap:round;stroke-linejoin:round;stroke-miterlimit:4;stroke-dasharray:none"
     d="M 7,17 1.9497004,22.050301"
     sodipodi:nodetypes="cc" />
  <path
     id="line27481"
     style="fill:none;stroke:#42B8EB;stroke-width:4;stroke-linecap:round;stroke-linejoin:round;stroke-miterlimit:4;stroke-dasharray:none"
     d="m 16.899399,7.1006017 5.050301,-5.0503"
     sodipodi:nodetypes="cc" />
  <circle
     class="cls-3"
     cx="11.9965"
     cy="12.0045"
     r="7"
     id="circle27577" />
  <circle
     class="cls-4"
     cx="11.9965"
     cy="12.0045"
     r="3.1111"
     id="circle27579" />
  <path
     class="cls-5"
     d="m 3.2679444,16.164442 c -0.4454809,-6e-6 -1.0467011,-1.099139 -0.731657,-1.4141 L 14.960084,2.3265452 c 0.471363,-0.4594986 1.544722,0.7963034 1.085157,1.2676 L 3.6214445,16.017942 c -0.093665,0.0939 -0.2208742,0.146615 -0.3535001,0.1465 z"
     id="path27505"
     sodipodi:nodetypes="cccccc"
     style="fill:#F4EFF3;stroke:none;stroke-width:1;stroke-linecap:round;stroke-linejoin:round;stroke-miterlimit:4;stroke-dasharray:none" />
  <path
     class="cls-5"
     d="M 8.724358,21.735296 C 8.278993,21.7352 7.6159285,20.761426 7.9308,20.446458 L 20.354604,8.022555 c 0.471362,-0.4833936 1.630519,0.671143 1.147058,1.142437 L 9.077558,21.588796 c -0.09355,0.09388 -0.220665,0.146601 -0.3532,0.1465 z"
     id="path27507"
     sodipodi:nodetypes="cccccc"
     style="fill:#F4EFF3;stroke:none;stroke-width:1;stroke-linecap:round;stroke-linejoin:round;stroke-miterlimit:4;stroke-dasharray:none" />
  <polygon
     class="cls-5"
     points="13.984,16.082 11.178,11.222 16.038,14.028 "
     id="polygon27511"
     transform="matrix(1.5920561,-0.59205607,-0.59205607,1.5920561,3.9401165,3.9446169)"
     style="fill:#F4EFF3;stroke:none;stroke-width:0.676648;stroke-linecap:round;stroke-linejoin:round;stroke-miterlimit:4;stroke-dasharray:none" />
  <path
     class="cls-5"
     d="M 7.2503445,7.8755171 A 0.66792456,0.66792456 0 0 1 6.7764719,7.6791869 L 2.8323129,3.7344921 A 0.67006878,0.67006878 0 0 1 3.7797903,2.7870149 L 7.7246192,6.7317098 A 0.67006878,0.67006878 0 0 1 7.2503445,7.8755171 Z"
     id="path27513"
     style="fill:#F4EFF3;stroke:none;stroke-width:1;stroke-linecap:round;stroke-linejoin:round;stroke-miterlimit:4;stroke-dasharray:none" />
  <polygon
     class="cls-5"
     points="11.178,11.222 16.038,14.028 13.984,16.082 "
     id="polygon858"
     transform="matrix(-1.5920561,0.59205607,0.59205607,-1.5920561,20.402291,20.498392)"
     style="fill:#F4EFF3;stroke:none;stroke-width:0.676648;stroke-linecap:round;stroke-linejoin:round;stroke-miterlimit:4;stroke-dasharray:none" />
  <path
     class="cls-5"
     d="m 21.096625,21.836233 a 0.66792456,0.66792456 0 0 1 -0.473873,-0.19633 l -3.944159,-3.944694 a 0.67006878,0.67006878 0 0 1 0.947478,-0.947477 l 3.944829,3.944694 a 0.67006878,0.67006878 0 0 1 -0.474275,1.143807 z"
     id="path860"
     style="fill:#F4EFF3;stroke:none;stroke-width:1;stroke-linecap:round;stroke-linejoin:round;stroke-miterlimit:4;stroke-dasharray:none" />
</svg>
