<?xml version="1.0" encoding="UTF-8" standalone="no"?>
<svg
   xmlns:dc="http://purl.org/dc/elements/1.1/"
   xmlns:cc="http://creativecommons.org/ns#"
   xmlns:rdf="http://www.w3.org/1999/02/22-rdf-syntax-ns#"
   xmlns:svg="http://www.w3.org/2000/svg"
   xmlns="http://www.w3.org/2000/svg"
   xmlns:sodipodi="http://sodipodi.sourceforge.net/DTD/sodipodi-0.dtd"
   xmlns:inkscape="http://www.inkscape.org/namespaces/inkscape"
   id="Слой_1"
   data-name="Слой 1"
   viewBox="0 0 24 24"
   version="1.1"
   sodipodi:docname="zoom_center_on_screen.svg"
   inkscape:version="1.0.1 (c497b03c, 2020-09-10)">
  <sodipodi:namedview
     pagecolor="#111111"
     bordercolor="#666666"
     borderopacity="1"
     objecttolerance="10"
     gridtolerance="10"
     guidetolerance="10"
     inkscape:pageopacity="0"
     inkscape:pageshadow="2"
     inkscape:window-width="1280"
     inkscape:window-height="755"
     id="namedview30"
     showgrid="true"
     inkscape:zoom="19.387662"
     inkscape:cx="9.8693462"
     inkscape:cy="13.880952"
     inkscape:window-x="0"
     inkscape:window-y="303"
     inkscape:window-maximized="0"
     inkscape:document-rotation="0"
     inkscape:current-layer="Слой_1">
    <inkscape:grid
       type="xygrid"
       id="grid_kicad"
       spacingx="0.5"
       spacingy="0.5"
       color="#9999ff"
       opacity="0.13"
       empspacing="2" />
  </sodipodi:namedview>
  <metadata
     id="metadata43">
    <rdf:RDF>
      <cc:Work
         rdf:about="">
        <cc:license
           rdf:resource="http://creativecommons.org/licenses/by-sa/4.0/" />
        <dc:format>image/svg+xml</dc:format>
        <dc:type
           rdf:resource="http://purl.org/dc/dcmitype/StillImage" />
        <dc:title>add_arc</dc:title>
      </cc:Work>
      <cc:License
         rdf:about="http://creativecommons.org/licenses/by-sa/4.0/">
        <cc:permits
           rdf:resource="http://creativecommons.org/ns#Reproduction" />
        <cc:permits
           rdf:resource="http://creativecommons.org/ns#Distribution" />
        <cc:requires
           rdf:resource="http://creativecommons.org/ns#Notice" />
        <cc:requires
           rdf:resource="http://creativecommons.org/ns#Attribution" />
        <cc:permits
           rdf:resource="http://creativecommons.org/ns#DerivativeWorks" />
        <cc:requires
           rdf:resource="http://creativecommons.org/ns#ShareAlike" />
      </cc:License>
    </rdf:RDF>
  </metadata>
  <defs
     id="defs160529">
    <style
       id="style160527">.cls-1{fill:#8f8f8f;}.cls-2{fill:#F4EFF3;}</style>
  </defs>
  <title
     id="title160531">zoom_center_on_screen</title>
  <path
     class="cls-2"
     d="M 9.9976484,18.999997 A 8.998129,8.9999987 0 1 1 16.362105,3.6373763 v 0 A 8.9954858,8.9973549 0 0 1 9.9976484,18.999997 Z m 0,-16.2787305 A 7.2800339,7.2815466 0 1 0 15.148695,4.8510385 7.2612755,7.2627843 0 0 0 9.9976484,2.7216076 Z"
     id="path160535"
     style="stroke-width:1;stroke-miterlimit:4;stroke-dasharray:none" />
  <path
     class="cls-2"
     d="M 9.9989603,12 A 2,2 0 1 1 11.413626,8.5851994 v 0 A 2,2 0 0 1 9.9989603,12 Z"
     id="path160537"
     style="stroke-width:0.999999" />
  <path
     class="cls-2"
     d="M 21.941949,23.012172 A 1.071826,1.071826 0 0 1 21.181811,22.69715 l -6.176896,-6.176896 a 1.0927916,1.0927916 0 0 1 1.520275,-1.520382 l 6.177004,6.176896 a 1.075159,1.075159 0 0 1 -0.760245,1.835404 z"
     id="path160539"
     style="stroke-width:1" />
</svg>
